﻿Code,New code,Area name,Inner/ Outer London,GLA Population Estimate 2016,GLA Household Estimate 2016,Inland Area (Hectares),Population density (per hectare) 2016,Average Age 2016,Proportion of population aged 0-15 2016,Proportion of population of working-age 2016,Proportion of population aged 65 and over 2016,Net internal migration (2014),Net international migration (2014),Net natural change (2014),% of resident population born abroad (2014),Largest migrant population by country of birth (2011),% of largest migrant population (2011),Second largest migrant population by country of birth (2011),% of second largest migrant population (2011),Third largest migrant population by country of birth (2011),% of third largest migrant population (2011),% of population from BAME groups (2016),% people aged 3+ whose main language is not English (2011 Census),Overseas nationals entering the UK (NINo) (2014/15),New migrant (NINo) rates (2014/15),Largest migrant population arrived during 2014/15,Second largest migrant population arrived during 2014/15,Third largest migrant population arrived during 2014/15,Employment rate (%) (2015),Male employment rate (2015),Female employment rate (2015),Unemployment rate (2015),Youth Unemployment (claimant) rate 18-24 (Dec-14),Proportion of 16-18 year olds who are NEET (%) (2014),Proportion of the working-age population who claim out-of-work benefits (%) (Aug-2015),% working-age with a disability (2015),Proportion of working age people with no qualifications (%) 2015,Proportion of working age with degree or equivalent and above (%) 2015,Gross Annual Pay (2015),Gross Annual Pay - Male (2015),Gross Annual Pay - Female (2015),Modelled Household median income estimates 2012/13,% adults that volunteered in past 12 months (2010/11 to 2012/13),Number of jobs by workplace (2014),% of employment that is in public sector (2014),Jobs Density 2014,Number of active businesses 2014,Two-year business survival rates (started in 2012),Crime rates per thousand population 2014/15,Fires per thousand population (2014),Ambulance incidents per hundred population (2014),Median House Price 2014,Average Band D Council Tax charge () 2015/16,New Homes (net) 2014/15 (provisional),Homes Owned outright (2014) %,Being bought with mortgage or loan (2014) %,Rented from Local Authority or Housing Association (2014) %,Rented from Private landlord (2014) %,% of area that is Greenspace 2005,Total carbon emissions (2013),Household Waste Recycling Rate 2014/15,Number of cars (2011 Census),Number of cars per household (2011 Census),% of adults who cycle at least once per month 2013/14,Average Public Transport Accessibility score 2014,Achievement of 5 or more A*- C grades at GCSE or equivalent including English and Maths 2013/14,Rates of Children Looked After (2015),% of pupils whose first language is not English (2015),% children living in out-of-work households (2014),Male life expectancy (2012-14),Female life expectancy (2012-14),Teenage conception rate (2014),Life satisfaction score 2011-14 (out of 10),Worthwhileness score 2011-14 (out of 10),Happiness score 2011-14 (out of 10),Anxiety score 2011-14 (out of 10),Childhood Obesity Prevalance (%) 2014/15,People aged 17+ with diabetes (%),Mortality rate from causes considered preventable 2012/14,Political control in council,Proportion of seats won by Conservatives in 2014 election,Proportion of seats won by Labour in 2014 election,Proportion of seats won by Lib Dems in 2014 election,Turnout at 2014 local elections
E09000001,E09000001,City of London,Inner London, 8548 , 5179 ,290.4,28.9,42.9,27.2,90.6,9.4,138,252,35,.,United States,2.8,France,2.0,Australia,1.9,27.5,17.1,892,151,France,United States,India,64.6,.,.,.,1.2,.,3.8,.,.,.,.,.,.,99390,.,500400, 3.4 ,84.60,19250,63,.,12.3,.,765000,943,230,.,.,.,.,4.8,1417.5,34.4,1692,0.4,.,7.9,78.6,84,.,9.1,.,.,.,6.59,7.08,5.99,5.57,n/a,2.6,128.8,.,.,.,.,.
E09000002,E09000002,Barking and Dagenham,Outer London, 205773 , 76841 ,3610.8,57.3,32.9,21.0,86.1,13.9,-1118,2543,2509,37.4,Nigeria,4.7,India,2.3,Pakistan,2.3,49.5,18.7,7727,62,Romania,Bulgaria,Lithuania,65.8,75.6,56.5,11.0,7.3,5.7,11.7,17.2,11.3,32.2,28428,29792,25251,34080,21,58900, 21.1 ,0.47,5690,73,83.4,3.0, 13.7 ,215000,1332,510,16.4,27.4,35.9,20.3,33.6,783.2,23.4,56966,0.8,6.5,3.0,58.0,77,47.2,22.5,77.6,82.1,32.4,7.14,7.6,7.05,3.05,25.3,7.3,227.6,Lab,0.0,100.0,0.0,36.5
E09000003,E09000003,Barnet,Outer London, 385108 , 149147 ,8674.8,44.5,37.2,21.0,83.3,16.7,-1884,4770,2938,35.9,India,3.1,Poland,2.4,Iran,2.0,38.7,23.4,14412,59,Romania,Poland,Italy,68.5,74.5,62.9,8.5,3.5,2.5,6.7,14.9,5.2,49.0,33084,37058,30449,54530,33,167300, 18.7 ,0.69,24555,70,62.7,1.6, 11.1 ,400000,1397,1320,32.4,25.2,11.1,31.1,41.3,1552.7,38.0,144717,1.1,12.1,3.0,67.3,34,43.4,10.8,82.1,85.1,12.8,7.48,7.76,7.37,2.75,18.4,6.0,133.8,Cons,50.8,47.6,1.6,40.5
E09000004,E09000004,Bexley,Outer London, 243303 , 97233 ,6058.1,39.9,38.9,20.8,89.0,11.0,1273,699,1195,16.1,Nigeria,2.6,India,1.5,Ireland,0.9,21.4,6.0,2108,14,Romania,Nigeria,Poland,75.1,82.1,68.5,7.6,3.8,3.4,7.3,15.9,10.8,33.5,32040,36020,25776,44430,22,80700, 15.9 ,0.54,8430,75,51.8,2.3, 11.8 ,250000,1446,810,38.1,35.3,15.2,11.4,31.7,1060.9,54.0,108507,1.2,9.2,2.6,60.3,50,15.0,15.4,80.4,84.4,19.5,7.38,7.7,7.21,3.29,21.4,6.9,164.3,Cons,71.4,23.8,0.0,39.6
E09000005,E09000005,Brent,Outer London, 328568 , 119166 ,4323.3,76.1,35.5,20.1,82.5,17.5,-6932,6717,3694,56.2,India,9.2,Poland,3.4,Ireland,2.9,64.9,37.2,25130,115,Romania,Italy,Portugal,69.5,76.0,62.6,7.5,6.1,2.6,9.0,17.7,6.2,45.1,29777,31149,27653,39630,17,133600, 17.6 ,0.61,14680,70,78.8,1.8, 12.1 ,385000,1354,1560,22.2,22.6,20.4,34.8,21.9,1292.6,35.2,87802,0.8,11.7,3.7,60.1,44,62.7,16.0,80.1,85.1,18.5,7.25,7.35,7.22,2.92,23.9,7.9,169.4,Lab,9.5,88.9,1.6,36.3
E09000006,E09000006,Bromley,Outer London, 326560 , 139654 ,15013.5,21.7,40.1,15.8,88.4,11.6,1169,728,1486,17.2,India,1.1,Ireland,1.1,Nigeria,0.7,18.9,5.8,2778,14,Romania,Italy,Poland,75.3,80.4,70.4,5.3,3.5,4.3,6.4,15.9,4.3,46.7,36498,42464,32600,55140,29,127800, 13.9 ,0.64,14825,77,64.1,2.3, 11.2 ,335000,1325,410,37.8,34.9,13.2,14.1,57.8,1334.7,48.0,153908,1.2,12.2,2.8,68.0,37,10.8,12.1,81.4,84.9,16.7,7.54,7.86,7.44,3.26,16.5,5.2,148.5,Cons,85.0,11.7,0.0,40.8
E09000007,E09000007,Camden,Inner London, 240595 , 106518 ,2178.9,109.8,36.2,8.8,82.8,17.2,-2790,6288,1642,42.4,United States,2.8,Bangladesh,2.7,Ireland,2.4,34.6,23.5,10703,64,Italy,France,Spain,69.2,72.2,66.1,4.0,5.0,4.4,9.2,21.3,6.1,61.1,39610,42905,35936,67990,22,377400, 12.4 ,2.25,29020,69,123.5,2.7, 14.8 ,675000,1337,440,18.5,15.1,34.4,32.0,24.8,1540.5,26.3,46601,0.5,15.1,5.7,62.7,43,55.4,19.1,81.8,86.7,16.8,7.14,7.38,7.11,3.61,20.8,3.9,163.8,Lab,22.2,74.1,1.9,38.7
E09000008,E09000008,Croydon,Outer London, 383408 , 156979 ,8650.4,44.4,36.9,22.3,87.0,13.0,-2362,2189,3443,29.7,India,3.6,Jamaica,2.5,Ghana,1.5,49.9,14.5,7902,32,Romania,Poland,Bulgaria,75.4,81.8,69.5,4.1,5.3,3.3,9.1,17.5,7.0,40.6,32887,34300,30509,45120,27,141600, 20.1 ,0.58,14400,74,77.0,2.2, 12.8 ,265000,1466,1520,30.8,33.6,16.7,18.6,37.1,1452.2,39.9,140049,1.0,6.8,3.2,57.7,87,30.2,16.5,80.3,83.6,28.4,7.1,7.57,7.18,3.3,23.8,6.5,178.2,Lab,42.9,57.1,0.0,38.6
E09000009,E09000009,Ealing,Outer London, 348533 , 130934 ,5554.4,63.5,36.1,21.2,88.3,11.7,-6391,2291,3708,45.5,India,7.6,Poland,6.4,Ireland,2.3,53.5,33.9,15143,66,Poland,Romania,Italy,72.7,81.2,63.8,5.8,5.2,3.0,8.6,15.2,9.1,49.7,28978,30800,27807,45690,32,160500, 13.6 ,0.70,17475,74,75.5,1.9, 11.3 ,388000,1355,900,20.1,30.2,14.3,35.0,30.9,1567.3,40.1,112845,0.9,13.4,3.3,62.1,44,59.8,15.0,80.6,84.2,17.8,7.29,7.57,7.26,3.57,23.3,6.9,163.5,Lab,17.4,76.8,5.8,41.2
E09000010,E09000010,Enfield,Outer London, 330968 , 129014 ,8083.2,41.0,36.2,22.7,87.2,12.8,-1892,2983,2948,32.8,Turkey,4.5,Cyprus (Not otherwise specified),3.6,Poland,1.9,42.3,22.9,9593,46,Romania,Bulgaria,Poland,73.0,80.4,66.0,3.8,7.3,3.1,10.1,18.4,4.5,43.4,31094,34234,27901,41250,22,128800, 21.7 ,0.61,13015,74,69.4,2.2, 12.2 ,285000,1395,400,25.6,36.2,17.2,21.0,45.6,1397.5,38.5,119653,1.0,7.9,3.0,59.9,44,46.3,20.5,80.7,84.1,24.6,7.26,7.57,7.33,2.6,25.4,7.0,152.0,Lab,34.9,65.1,0.0,38.2
E09000011,E09000011,Greenwich,Outer London, 275868 , 111783 ,4733.4,58.8,34.9,21.8,89.4,10.6,-1262,2793,2895,32.9,Nigeria,5.1,Nepal,1.9,India,1.7,40.3,16.9,7184,40,Romania,Nigeria,Bulgaria,72.1,77.9,66.3,8.1,6.2,5.0,10.4,20.2,10.6,42.2,31757,34835,28911,44370,17,94700, 27.3 ,0.52,8975,71,79.4,2.5, 11.9 ,317000,1276,1150,19.2,26.9,34.2,19.7,34.4,1004.5,34.3,78185,0.8,11.6,3.4,58.8,80,38.7,19.4,79.0,82.5,28.1,7.2,7.55,7.2,3.4,24.5,6.1,193.2,Lab,15.7,84.3,0.0,37.3
E09000012,E09000012,Hackney,Inner London, 270912 , 113537 ,1904.9,141.1,32.9,20.4,92.7,7.3,-226,2592,3405,38.9,Turkey,3.6,Nigeria,2.7,Jamaica,1.8,43.6,24.1,9424,50,Italy,Spain,France,69.0,72.8,65.3,5.9,6.3,3.0,11.7,17.9,10.8,49.2,32199,.,32205,42690,30,132800, 18.1 ,0.70,16095,74,99.6,2.7, 11.5 ,433000,1293,1260,11.1,19.8,45.4,23.3,23.2,877.8,25.3,41800,0.4,24.1,4.9,60.6,58,50.8,21.7,78.5,83.3,24.7,7.03,7.31,6.99,3.76,25.6,5.8,210.6,Lab,7.0,87.7,5.3,39.4
E09000013,E09000013,Hammersmith and Fulham,Inner London, 183354 , 82513 ,1639.7,111.8,35.6,17.0,89.9,10.1,-3248,1277,1681,41.5,France,2.7,Ireland,2.7,Australia,2.5,33.7,22.7,10114,78,Italy,Spain,France,77.5,80.9,74.2,4.7,3.6,2.5,9.0,12.9,4.9,67.5,38029,.,34539,62910,30,149500, 16.4 ,1.16,13465,69,113.2,2.0, 12.2 ,661000,1023,1360,19.1,21.8,25.9,33.1,19.1,971.3,20.7,43843,0.5,24.0,4.7,60.5,55,45.8,17.8,79.7,84.1,22.4,7.41,7.53,7.16,3.09,23.3,4.4,187.4,Lab,43.5,56.5,0.0,37.6
E09000014,E09000014,Haringey,Inner London, 274803 , 113582 ,2959.8,92.7,34.9,19.5,90.7,9.3,-4412,5559,3006,39.6,Poland,4.3,Turkey,4.0,Jamaica,2.0,38.2,29.7,17549,93,Romania,Bulgaria,Italy,71.3,77.6,64.8,5.7,7.1,3.5,10.6,16.3,8.8,49.2,30931,32000,29224,45860,30,91500, 17.8 ,0.48,11875,71,90.2,2.1, 12.3 ,405000,1479,130,18.0,24.7,33.4,23.9,25.5,891.6,37.3,61515,0.6,15.2,4.3,59.7,75,52.3,19.5,80.1,84.9,22.6,7.24,7.5,7.19,3.18,22.6,5.9,183.4,Lab,0.0,84.2,15.8,38.1
E09000015,E09000015,Harrow,Outer London, 250703 , 91390 ,5046.3,49.8,38.1,20.7,85.0,15.0,-2606,3030,2182,50.7,India,9.0,Kenya,4.9,Sri Lanka,4.3,61.8,28.5,11239,71,Romania,Poland,India,73.9,83.1,64.7,4.6,4.3,1.5,6.0,13.9,4.2,47.9,32529,36355,29621,49060,39,88600, 14.5 ,0.56,14000,75,50.4,1.3, 9.8 ,370000,1529,410,33.5,32.8,8.9,24.6,34.6,837.7,45.1,100326,1.2,5.1,2.9,66.4,29,61.6,10.5,82.7,86.1,11.0,7.33,7.42,7.31,2.71,21.1,8.5,134.2,Lab,41.3,54.0,1.6,40.7
E09000016,E09000016,Havering,Outer London, 251611 , 102954 ,11235.0,22.3,40.3,19.5,81.5,18.5,2244,673,977,11.9,Ireland,1.1,India,1.0,Nigeria,0.9,15.7,4.6,2459,16,Romania,Lithuania,Bulgaria,76.5,81.3,71.8,5.3,3.8,4.0,7.5,18.2,10.5,26.0,32274,36530,28243,44430,17,91300, 20.7 ,0.60,9445,77,62.9,2.5, 12.9 ,250000,1514,640,35.2,33.9,17.2,13.8,59.3,1161.2,32.4,117634,1.2,9.2,2.5,59.8,45,12.5,15.3,80.2,83.9,22.8,7.39,7.65,7.21,3.28,20.8,5.9,159.3,No Overall Control,40.7,1.9,0.0,43.1
E09000017,E09000017,Hillingdon,Outer London, 299474 , 109932 ,11570.1,25.8,36.3,21.2,87.0,13.0,-800,3970,2636,33.1,India,5.7,Pakistan,1.8,Ireland,1.6,45.7,18.8,6554,34,Romania,India,Poland,73.2,80.7,65.9,5.8,3.2,2.4,7.2,17.9,8.7,40.2,32989,34409,30515,44950,24,220900, 11.4 ,1.15,12485,74,76.6,2.6, 14.7 ,307000,1408,550,22.2,33.0,16.6,28.2,49.2,1998.4,43.8,122486,1.2,13.3,2.4,62.0,48,42.8,14.3,80.4,83.9,20.5,7.37,7.68,7.28,3.47,19.8,6.4,170.1,Cons,64.6,35.4,0.0,36.1
E09000018,E09000018,Hounslow,Outer London, 272102 , 104474 ,5597.8,48.9,35.7,21.0,88.7,11.3,-3678,3607,2990,47.8,India,10.7,Poland,4.1,Pakistan,2.8,51.6,28.7,11132,62,Romania,Poland,India,74.2,84.7,63.2,4.3,4.9,3.2,7.5,17.6,6.5,45.5,.,.,.,44490,27,165700, 11.7 ,0.92,13035,74,79.2,2.1, 12.1 ,319950,1375,400,25.5,27.0,19.2,28.3,39.6,1420.7,34.5,94042,1.0,15.3,3.0,63.2,48,58.8,15.2,80.0,83.9,25.0,7.31,7.62,7.4,3.39,22.8,6.5,165.8,Lab,18.3,81.7,0.0,36.8
E09000019,E09000019,Islington,Inner London, 228397 , 103612 ,1485.7,153.0,34.7,16.0,91.1,8.9,-1067,4620,1826,36.8,Ireland,2.8,Turkey,1.8,United States,1.5,32.0,19.9,9435,57,Italy,France,Spain,72.6,78.2,67.0,4.5,6.5,5.2,11.6,14.6,6.2,62.7,35476,39361,31994,54950,31,231500, 14.5 ,1.39,18710,69,121.2,2.6, 13.9 ,530000,1276,500,15.4,23.5,35.3,25.5,12.4,1052.1,32.8,38629,0.4,21.0,5.7,59.9,90,45.2,26.4,79.0,83.5,20.2,7.17,7.42,7.06,3.7,22.8,5.0,202.8,Lab,0.0,97.9,0.0,38.4
E09000020,E09000020,Kensington and Chelsea,Inner London, 158447 , 79735 ,1212.4,129.2,39.1,15.9,85.6,14.4,-1580,1059,1088,54.7,United States,5.0,France,4.2,Italy,2.7,30.0,28.0,7676,70,Italy,France,Spain,68.2,76.3,60.4,4.2,4.5,3.6,7.8,14.3,5.2,65.2,.,.,.,116350,31,143500, 14.7 ,1.32,13635,69,120.9,2.0, 12.7 ,1195000,1078,980,22.6,15.1,29.1,33.1,15.1,1236.0,25.3,44536,0.6,16.2,5.8,68.7,38,51.7,12.0,83.3,86.4,14.2,7.61,7.8,7.56,3.1,21.5,4.2,136.3,Cons,74.0,24.0,2.0,29.8
E09000021,E09000021,Kingston upon Thames,Outer London, 173853 , 69132 ,3726.1,46.3,37.0,19.0,87.0,13.0,-188,2136,1178,29.2,Sri Lanka,2.2,India,1.8,Korea (South),1.4,30.4,16.4,3157,28,Bulgaria,Poland,Romania,74.4,80.9,67.8,4.5,2.8,3.9,5.1,15.3,5.9,53.7,36767,40000,32928,56920,43,83700, 17.1 ,0.73,8520,79,58.5,1.8, 11.1 ,385000,1675,530,27.7,38.9,10.7,22.4,36.4,752.4,45.7,70421,1.1,21.1,2.9,68.6,32,32.6,8.9,82.0,84.6,15.3,7.34,7.68,7.41,3.29,15.8,4.9,140.6,Cons,58.3,4.2,37.5,43.1
E09000022,E09000022,Lambeth,Inner London, 325455 , 142382 ,2681.0,121.4,34.4,17.5,92.2,7.8,-1908,2645,3230,33.6,Jamaica,3.2,Portugal,2.3,Poland,2.3,41.5,20.3,12764,54,Spain,Italy,Portugal,78.5,82.3,74.6,5.9,5.2,2.2,9.8,16.1,6.2,65.0,33341,.,30732,48610,32,184000, 23.1 ,0.78,20900,68,104.6,2.5, 13.3 ,420000,1239,1410,10.9,24.9,29.8,34.4,17.3,1257.3,28.3,66791,0.5,20.2,5.0,57.1,78,47.1,21.5,78.9,83.3,33.8,7.14,7.46,7.2,3.53,27.1,5.0,205.0,Lab,4.8,93.7,0.0,34.5
E09000023,E09000023,Lewisham,Inner London, 299817 , 128966 ,3514.9,84.7,34.9,20.6,90.7,9.3,-787,3234,3292,30.9,Jamaica,3.5,Nigeria,3.5,Poland,1.6,47.4,16.5,8482,42,Romania,Italy,Spain,75.9,79.6,72.4,5.7,7.5,3.5,10.8,16.5,5.8,53.3,31783,32738,30048,43360,28,90000, 24.8 ,0.44,9625,75,77.0,2.2, 12.0 ,315000,1355,1470,16.5,31.7,28.1,23.6,22.5,930.3,17.1,76507,0.7,13.1,4.1,56.3,73,30.7,20.8,79.0,83.4,31.3,7.18,7.63,7.26,3.43,24.2,6.1,190.8,Lab,0.0,98.1,0.0,37.2
E09000024,E09000024,Merton,Outer London, 207141 , 83446 ,3762.5,55.7,36.6,20.5,87.9,12.1,-2365,540,2115,41.1,Poland,3.5,Sri Lanka,3.2,South Africa,2.8,36.7,21.1,6730,49,Poland,Romania,Bulgaria,78.8,86.3,71.4,4.6,4.7,4.3,6.3,13.5,4.7,58.0,33122,36763,30307,57160,22,96800, 12.2 ,0.70,11225,72,59.7,1.8, 10.4 ,385000,1401,430,21.7,32.7,16.2,29.3,34.6,844.6,37.5,72777,0.9,19.4,3.4,67.8,34,41.9,11.8,80.4,84.2,19.7,7.28,7.54,7.13,3.56,21.6,5.6,161.8,Lab,33.3,60.0,1.7,41.3
E09000025,E09000025,Newham,Inner London, 337378 , 116187 ,3619.8,93.5,31.9,21.9,93.1,6.9,-8534,9518,5092,51.8,India,8.7,Bangladesh,6.8,Pakistan,5.3,73.1,41.4,26478,116,Romania,Bulgaria,India,66.2,75.0,56.1,9.1,7.0,4.3,9.2,12.7,11.0,43.4,27174,28160,25055,34260,8,111100, 23.1 ,0.49,9645,68,90.8,2.5, 12.2 ,250000,1241,2050,9.4,16.7,31.4,42.5,23.9,1441.6,17.2,61092,0.6,7.1,3.9,55.7,52,70.8,17.6,78.5,83.0,22.5,7.12,7.43,7.18,3.37,27.4,7.6,193.4,Lab,0.0,100.0,0.0,40.5
E09000026,E09000026,Redbridge,Outer London, 301022 , 109114 ,5641.9,53.3,35.7,23.1,87.9,12.1,-1622,3403,3003,40.1,India,7.6,Pakistan,5.3,Sri Lanka,2.6,62.7,24.6,10237,54,Romania,India,Italy,68.3,79.1,57.6,7.9,5.4,3.3,6.6,17.1,10.2,44.7,35665,39266,30118,45380,25,90700, 22.9 ,0.48,13160,71,69.7,1.9, 11.3 ,301500,1391,260,29.5,34.9,11.3,24.1,40.6,963.5,28.7,106339,1.1,9.5,3.0,68.7,29,61.1,11.7,80.9,84.6,18.5,7.32,7.57,7.3,3.2,22.9,7.9,141.9,Lab,39.7,55.6,4.8,39.7
E09000027,E09000027,Richmond upon Thames,Outer London, 196602 , 84615 ,5740.7,34.3,38.7,20.5,85.3,14.7,208,426,1610,24.2,Ireland,1.8,South Africa,1.4,United States,1.4,15.7,10.4,2536,20,Poland,Italy,Spain,79.6,82.1,77.2,3.8,2.9,4.3,4.7,10.8,3.2,69.5,39563,42896,34653,76610,49,95900, 11.2 ,0.77,13650,76,56.3,1.5, 9.7 ,535000,1582,240,30.9,38.4,8.7,21.9,50.8,880.9,41.2,84918,1.1,31.7,3.1,70.5,22,20.9,6.1,82.4,86.0,12.6,7.54,7.75,7.33,3.2,11.2,3.7,137.4,Cons,72.2,0.0,27.8,46.1
E09000028,E09000028,Southwark,Inner London, 310642 , 132080 ,2886.2,108.2,34.2,18.1,92.1,7.9,-3538,4210,3384,35.9,Nigeria,4.7,Jamaica,2.0,Ireland,1.7,45.7,19.6,12955,58,Spain,Italy,Romania,74.2,79.8,68.6,7.7,6.2,2.0,10.2,16.8,7.6,56.8,34537,36067,32600,48000,26,285900, 18.8 ,1.29,15860,71,100.6,3.0, 13.6 ,420000,1207,1140,10.1,26.3,37.2,26.4,24.9,1454.5,34.6,60438,0.5,15.6,4.9,61.2,82,41.9,22.1,78.9,83.9,27.4,7.47,7.67,7.31,3.42,28.0,5.5,207.5,Lab,3.2,76.2,20.6,36.2
E09000029,E09000029,Sutton,Outer London, 201751 , 84612 ,4384.7,46.1,38.7,20.7,84.8,15.2,594,465,1164,26.4,Sri Lanka,1.8,India,1.7,Ireland,1.2,25.0,10.0,1945,15,Romania,Bulgaria,Poland,78.2,86.2,70.5,5.5,3.4,3.2,6.2,14.4,4.3,42.5,31387,36168,26404,49170,24,78600, 18.9 ,0.61,8155,77,55.9,2.0, 11.3 ,285000,1459,430,25.7,41.8,11.6,20.5,32.0,774.4,37.6,91266,1.2,12.5,2.9,67.4,50,22.9,11.5,80.9,83.4,17.3,7.46,7.7,7.26,3.22,17.4,5.9,163.2,Lib Dem,16.7,0.0,83.3,42.6
E09000030,E09000030,Tower Hamlets,Inner London, 297805 , 120576 ,1978.1,149.8,31.3,19.6,94.3,5.7,-875,8467,3518,37.8,Bangladesh,15.3,India,1.5,China,1.4,54.0,34.2,18882,90,Italy,Spain,France,70.4,80.3,59.6,9.2,7.3,3.4,9.4,15.4,10.0,45.7,34849,.,32934,45720,21,280100, 16.1 ,1.34,16545,69,99.9,3.5, 11.8 ,383000,1181,920,7.0,19.8,41.6,31.5,15.2,1948.3,28.1,43589,0.4,19.3,5.0,59.2,44,73.8,25.2,78.1,82.5,18.1,7.22,7.39,7.2,3.26,26.7,6.6,238.7,Tower Hamlets First,11.1,48.9,0.0,47.2
E09000031,E09000031,Waltham Forest,Outer London, 274139 , 104777 ,3880.8,71.1,34.9,21.8,89.8,10.2,-6052,5075,3194,36.0,Pakistan,4.9,Poland,3.2,Romania,1.7,49.9,26.4,17257,95,Romania,Bulgaria,Poland,73.1,76.8,69.4,5.4,8.0,3.0,8.9,15.5,11.6,42.6,29532,32492,25729,39460,19,84500, 23.0 ,0.46,9875,71,78.0,2.2, 11.7 ,320000,1447,670,20.6,29.2,19.9,30.0,31.4,850.5,35.5,76217,0.8,12.8,3.6,58.3,42,51.4,18.1,79.4,83.8,26.2,7.19,7.5,7.12,3.14,21.7,6.4,185.3,Lab,26.7,73.3,0.0,37.6
E09000032,E09000032,Wandsworth,Inner London, 318253 , 136572 ,3426.4,93.8,34.9,17.3,90.6,9.4,-2143,-241,3727,32.8,Poland,2.2,South Africa,2.1,Ireland,1.9,29.7,17.4,10453,46,Italy,Spain,Poland,78.8,86.6,71.6,5.7,3.1,2.9,6.5,11.4,4.3,66.4,39562,42181,37053,66220,35,134100, 21.4 ,0.59,17445,75,72.6,1.8, 10.1 ,532500,683,1080,17.7,30.5,19.3,31.2,26.9,1162.6,20.7,89513,0.7,18.2,4.3,63.0,37,45.5,14.3,79.5,83.7,19.3,7.37,7.63,7.37,3.59,20.7,4.2,176.6,Cons,68.3,31.7,0.0,36.9
E09000033,E09000033,Westminster,Inner London, 239862 , 117509 ,2148.7,110.4,37.6,15.3,87.9,12.1,-4000,8886,1567,51.3,United States,3.6,France,2.6,Iraq,2.1,38.8,30.8,13380,79,Italy,France,Spain,65.6,68.6,62.3,8.8,3.4,2.2,8.4,17.5,4.5,63.6,42798,45872,37918,80760,24,730700, 13.4 ,4.33,53160,64,212.4,4.0, 19.9 ,875000,674,750,17.1,11.6,27.8,43.3,38.2,3048.4,19.1,48810,0.5,18.4,6.5,65.7,44,66.8,18.2,82.3,86.3,15.4,7.25,7.45,7.13,3.43,24.5,4.4,161.5,Cons,73.3,26.7,0.0,32.3
#1,E13000001,Inner London,,3494269, 1467652 ,31929.2,109.2,34.5,18.3,91.0,9.0,-34970,58366,36493,39.9,Bangladesh,2.5,India,1.8,Ireland,1.7,43.1,25.2,169187,69,Italy,Romania,Spain,72.3,78.0,66.6,6.4,5.7,3.3,9.6,15.6,7.2,57.0,.,.,.,56890,.,3442500, 14.4 ,1.40,265230,69,106.4,2.6, 13.1 ,465000,1096,13720,14.6,22.2,32.1,30.9,21.7,19229.8,.,725356,0.5,17.5,4.9,.,60,53.1,19.9,.,.,23.1,7.25,7.51,7.21,3.44,-,5.3,.,.,23.4,69.7,3.8,37.7
#2,E13000002,Outer London,,5256484, 2029848 ,125423.6,42.0,36.8,21.4,86.8,13.2,-33664,49038,45865,34.5,India,4.1,Poland,2.1,Pakistan,1.6,42.1,20.1,165223,49,Romania,Poland,Italy,73.3,80.3,66.4,5.9,4.9,3.4,7.8,16.4,7.3,44.7,.,.,.,48530,.,2190400, 16.8 ,0.65,235595,73,69.4,2.1, 11.8 ,318000,1425,13140,27.3,32.0,16.7,23.9,42.5,21929.8,.,1939058,1.0,12.7,3.0,.,47,40.8,14.7,.,.,20.7,7.32,7.61,7.27,3.19,-,6.5,.,.,39.2,49.4,7.8,39.6
#3,E12000007,London,,8750753, 3549483 ,157214.7,55.7,35.9,20.2,88.5,11.5,-68634,107404,82358,36.6,India,3.2,Poland,1.9,Ireland,1.6,42.5,22.1,334419,57,Romania,Italy,Spain,72.9,79.3,66.5,6.1,5.2,3.4,8.5,16.1,7.3,49.9,33203,35622,30505,51770,26,5633400, 15.3 ,0.97,500825,71,84.0,2.3, 12.3 ,365000,1299,26840,22.0,27.9,23.1,26.8,38.3,41159.7,33.1,2664414,0.8,14.2,3.8,61.8,52,44.9,16.6,80.3,84.2,21.5,7.3,7.57,7.24,3.29,22.6,6.0,169.5,.,33.1,57.3,6.3,38.9
#4,E92000001,England,,54316618, 23171399 ,13025966.7, . ,39.6,18.8,32.2,17.7,-8902,249458,212855,14.2,India,1.3,Poland,1.1,Pakistan,0.9,.,8.0,749198,22,Romania,Poland,Italy,73.9,79.1,68.6,5.1,5.1,4.7,9.2,19.2,8.4,36.7,27869,30165,24292,30763,24,28556100, 16.8 ,0.83,2235345,74,65.7,.,.,198000,1484, 170690 ,32.1,31.8,17.5,18.5,87.5,361360.1,43.7,25696833,1.1,15.0,.,56.8,60,17.4,16.2,79.5,83.2,22.8,7.45,7.7,7.33,3.03,19.1,6.2,182.7,.,.,.,.,.
#5,K02000001,United Kingdom,,64596752, . ,., . ,39.8,19.0,32.2,17.6,.,.,.,13.0,.,.,.,.,.,.,.,.,820603,20,Romania,Poland,Italy,73.5,78.5,68.5,5.3,5.2,.,.,19.5,8.8,36.9,27645,29934,24202,39430,.,., 17.6 ,0.82,2550890,74,.,.,.,195000,.,.,32.3,31.8,17.9,17.9,.,445928.8,.,30333100,1.1,.,.,.,.,.,16.4,.,.,.,7.46,7.7,7.33,3.03,n/a,n/a,.,.,.,.,.,.
,,National comparator,,54316618,23171399,13025966.7,.,39.8,18.8,32.2,17.7,-8902,249458,212855,13.0,India,1.3,Poland,1.1,Pakistan,0.9,.,8.0,820603,20,Romania,Poland,Italy,73.9,79.1,68.6,5.1,.,4.7,.,19.2,8.8,36.9,27869,30165,24292,39430,24,28556100,16.8,0.83,2235345,74,65.7,n/a,n/a,198000,1484,170690,32.3,31.8,17.9,17.9,87.5,445928.8,43.7, 25696833 ,1.1,15.0,.,56.8,60.0,17.4,16.2,79.5,83.2,22.8,7.5,7.7,7.3,3.0,19.1,6.2,182.7,.,.,.,.,.
